{
  "token": "DUMMY",
  "user": "test@mail.com",
  "hub_domain": "test-dev-3881032.com",
  "scopes": [
    "contacts",
    "oauth"
  ],
  "hub_id": 3881032,
  "app_id": 54207,
  "expires_in": 21599,
  "user_id": 4680499,
  "token_type": "access"
}