{
  "type": [
    "id",
    "reference"
  ],
  "id": [
    "IsDeleted",
    "PhotoUrl",
    "IsEmailBounced"
  ],
  "addressFields": [
    "PostalCode",
    "Street",
    "City",
    "State",
    "Country",
    "GeocodeAccuracy",
    "Latitude",
    "Longitude"
  ]
}