{
  "totalSize": 1,
  "done": true,
  "records": [{
    "attributes": {
      "type": "Contact",
      "url": "/services/data/v40.0/sobjects/Contact/0030Y00000SbRlmQAF"
    },
    "Cases": {
      "totalSize": 1,
      "done": true,
      "records": [{
        "attributes": {
          "type": "Case",
          "url": "/services/data/v40.0/sobjects/Case/5000Y00000GYkCiQAL"
        },
        "Id": "CASEID0",
        "CaseNumber": "0123456",
        "Subject": "Test subject",
        "Status": "Test status"
      }]
    }
  }]
}
