{
  "fields": [
    {
      "label": "Contact ID",
      "name": "Id",
      "type": "id"
    },
    {
      "label": "Full Name",
      "name": "Name",
      "type": "string"
    },
    {
      "label": "Email",
      "name": "Email",
      "type": "email"
    },
    {
      "label": "Test Field",
      "name": "TestField1",
      "type": "string"
    }
  ]
}
