[
  {
    "model": "Account",
    "data": {
      "id": 1,
      "instanceId": "jira:main-jira-in-the-w0rld",
      "type": "salesforce",
      "jiraAccountId": "test:account-id",
      "baseUrl": "https://test1.salesforce.com",
      "externalId": "00salesforceOrgId00",
      "crmUserId": "CRM-SF-USER-0",
      "accessToken": "DUMMY",
      "refreshToken": "DUMMY"
    }
  },
  {
    "model": "Account",
    "data": {
      "id": 2,
      "instanceId": "jira:main-jira-in-the-w0rld",
      "type": "dynamics",
      "jiraAccountId": "test:account-id",
      "baseUrl": "https://test.crm.dynamics.com",
      "externalId": "00dynamics00",
      "crmUserId": "CRM-DYNAMICS-USER-0",
      "accessToken": "DUMMY",
      "refreshToken": "DUMMY"
    }
  },
  {
    "model": "Account",
    "data": {
      "id": 3,
      "instanceId": "jira:main-jira-in-the-w0rld",
      "type": "hubspot",
      "jiraAccountId": "test:account-id",
      "baseUrl": "https://test-dev-3881032.com",
      "externalId": "00hubspot00",
      "crmUserId": "CRM-HUBSPOT-USER-0",
      "accessToken": "DUMMY",
      "refreshToken": "DUMMY"
    }
  }
]
