[
  {
    "model": "Match",
    "data": {
      "id": 1,
      "connectionId": 1,
      "recordType": "Contact",
      "recordId": "CONTACTID0",
      "issueId": "10000"
    }
  },
  {
    "model": "Match",
    "data": {
      "id": 2,
      "connectionId": 2,
      "recordType": "Contact",
      "recordId": "CONTACTID0",
      "issueId": "10000"
    }
  },
  {
    "model": "Match",
    "data": {
      "id": 3,
      "connectionId": 3,
      "recordType": "Contact",
      "recordId": "101",
      "issueId": "10000"
    }
  }
]
