[
  {
    "id": "Contact",
    "label": "Contact",
    "fields": [
      {
        "id": "email",
        "label": "Email",
        "type": "email"
      }
    ],
    "objects": [
      {
        "id": "Deal",
        "label": "Deals",
        "fields": [
          {
            "id": "dealname",
            "label": "Name",
            "type": "title"
          },
          {
            "id": "dealstage",
            "label": "Stage",
            "type": "picklist"
          },
          {
            "id": "closedate",
            "label": "Close Date",
            "type": "date"
          }
        ]
      }
    ]
  },
  {
    "id": "Company",
    "label": "Company",
    "fields": [
      {
        "id": "type",
        "label": "Type",
        "type": "picklist"
      }
    ],
    "objects": [
      {
        "id": "Contact",
        "label": "Contacts",
        "fields": [
          {
            "id": "name",
            "label": "Name",
            "type": "title"
          },
          {
            "id": "email",
            "label": "Email",
            "type": "email"
          }
        ]
      },
      {
        "id": "Deal",
        "label": "Deals",
        "fields": [
          {
            "id": "dealname",
            "label": "Name",
            "type": "title"
          },
          {
            "id": "dealstage",
            "label": "Stage",
            "type": "picklist"
          },
          {
            "id": "closedate",
            "label": "Close Date",
            "type": "date"
          }
        ]
      }
    ]
  }
]
