<?xml version="1.0" encoding="UTF-8" standalone="no"?>
<svg width="112px" height="112px" viewBox="0 0 112 112" version="1.1" xmlns="http://www.w3.org/2000/svg" xmlns:xlink="http://www.w3.org/1999/xlink">
    <!-- Generator: Sketch 39.1 (31720) - http://www.bohemiancoding.com/sketch -->
    <title>contacts</title>
    <desc>Created with Sketch.</desc>
    <defs></defs>
    <g id="Sales,-CRM" stroke="none" stroke-width="1" fill="none" fill-rule="evenodd">
        <g id="Sales" transform="translate(-223.000000, -45.000000)">
            <g id="contacts-copy" transform="translate(241.000000, 48.000000)">
                <g id="Group-3" transform="translate(0.000000, 0.853819)" fill="#32475C">
                    <path d="M84.6326703,26.5775933 L84.6326703,18.0088705 C84.6326703,14.129539 81.4766824,10.9727482 77.5983374,10.9727482 L71.2354912,10.9727482 L71.2354912,8.3054534 C71.2354912,3.81654171 67.5850448,0.164149049 63.0962573,0.164149049 L8.13913221,0.164149049 C3.65136209,0.164149049 -0.000101740424,3.81654171 -0.000101740424,8.3054534 L-0.000101740424,76.2375145 L-0.000101740424,81.6697999 C-0.000101740424,88.1228012 5.24868676,93.3729249 11.7000471,93.3729249 L14.8824875,93.3729249 C15.1256472,93.3729249 15.3606675,93.342395 15.5916183,93.3016885 L15.5916183,100.748947 C15.5916183,102.256106 16.423855,103.63911 17.7546197,104.345368 C18.3528534,104.661861 19.0080618,104.819599 19.6602179,104.819599 C20.460915,104.819599 21.2585599,104.583501 21.9453078,104.117411 L25.6618855,101.59666 L29.3774458,104.117411 C30.0641937,104.583501 30.8618386,104.819599 31.6625357,104.819599 C32.3157093,104.819599 32.9699002,104.661861 33.5681339,104.345368 C34.8988986,103.63911 35.7321527,102.256106 35.7321527,100.748947 L35.7321527,93.3729249 L36.4402661,93.3729249 L68.4640821,93.3729249 C74.9154424,93.3729249 80.1642309,88.1228012 80.1642309,81.6697999 L80.1642309,72.8802442 L80.1642309,71.6804194 C82.7759076,70.6515621 84.6326703,68.1084221 84.6326703,65.1337931 L84.6326703,56.5671056 C84.6326703,54.4228895 83.6661363,52.5025594 82.150204,51.211145 C83.6661363,49.9197306 84.6326703,48.0004181 84.6326703,45.856202 L84.6326703,37.2895145 C84.6326703,35.1452985 83.6661363,33.2239507 82.1491866,31.9325363 C83.6661363,30.6411219 84.6326703,28.7218094 84.6326703,26.5775933" id="Fill-1"></path>
                </g>
                <g id="Group-6" transform="translate(0.000000, 0.853819)" fill="#32475C">
                    <path d="M80.5630533,65.1337931 C80.5630533,66.7732482 79.2363582,68.1012985 77.5983374,68.1012985 L71.2354912,68.1012985 L71.2354912,53.6006178 L77.5983374,53.6006178 C79.2353408,53.6006178 80.5630533,54.9286681 80.5630533,56.5671056 L80.5630533,65.1337931 Z M76.0946139,81.6697999 C76.0946139,85.8788542 72.672066,89.3022727 68.4640821,89.3022727 L36.4402661,89.3022727 L36.4402661,84.3788189 L63.0962573,84.3788189 C63.6548122,84.3788189 64.2001409,84.3218298 64.7271563,84.2139575 L68.4640821,84.2139575 C69.8670825,84.2139575 71.0075927,83.0731572 71.0075927,81.6697999 L71.0075927,78.1191735 C71.1520641,77.513664 71.2354912,76.8857659 71.2354912,76.2375145 L71.2354912,72.8802442 L76.0946139,72.8802442 L76.0946139,81.6697999 Z M25.6618855,96.6782944 L19.6612353,100.748947 L19.6612353,84.3788189 L31.6625357,84.3788189 L31.6625357,100.748947 L25.6618855,96.6782944 Z M14.8824875,89.3022727 L11.7000471,89.3022727 C7.49206311,89.3022727 4.06951524,85.8788542 4.06951524,81.6697999 L4.06951524,76.2375145 L4.06951524,8.3054534 C4.06951524,6.0665947 5.90084288,4.23480122 8.13913221,4.23480122 L63.0962573,4.23480122 C65.3345466,4.23480122 67.1658743,6.0665947 67.1658743,8.3054534 L67.1658743,10.9727482 L66.9379757,10.9727482 L66.9379757,15.0434004 L66.9379757,29.5420458 L66.9379757,30.2513569 L66.9379757,33.612698 L66.9379757,34.3220091 L66.9379757,48.8216721 L66.9379757,49.5299656 L66.9379757,52.8923243 L66.9379757,53.6006178 L66.9379757,68.1012985 L66.9379757,68.809592 L66.9379757,72.1719507 L66.9379757,72.8802442 L66.9379757,77.51977 C66.5096485,78.7928664 65.4759658,79.7810173 64.1747058,80.1433053 L36.4402661,80.1433053 L32.3706491,80.1433053 L32.3706491,80.2145417 C32.1396983,80.1738352 31.904678,80.1433053 31.6625357,80.1433053 L19.6612353,80.1433053 C19.2827609,80.1433053 18.9246346,80.2114887 18.5766824,80.3081667 L9.15653646,80.3081667 L9.15653646,81.6697999 C9.15653646,83.0731572 10.2970466,84.2139575 11.7000471,84.2139575 L14.8824875,84.2139575 L14.8824875,89.3022727 Z M71.2354912,34.3220091 L77.5983374,34.3220091 C79.2353408,34.3220091 80.5630533,35.6490417 80.5630533,37.2895145 L80.5630533,45.856202 C80.5630533,47.4936219 79.2363582,48.8216721 77.5983374,48.8216721 L71.2354912,48.8216721 L71.2354912,34.3220091 Z M77.5983374,15.0434004 C79.2353408,15.0434004 80.5630533,16.3714507 80.5630533,18.0088705 L80.5630533,26.5775933 C80.5630533,28.2139955 79.2363582,29.5420458 77.5983374,29.5420458 L71.2354912,29.5420458 L71.2354912,15.0434004 L77.5983374,15.0434004 Z M84.6326703,26.5775933 L84.6326703,18.0088705 C84.6326703,14.129539 81.4766824,10.9727482 77.5983374,10.9727482 L71.2354912,10.9727482 L71.2354912,8.3054534 C71.2354912,3.81654171 67.5850448,0.164149049 63.0962573,0.164149049 L8.13913221,0.164149049 C3.65136209,0.164149049 -0.000101740424,3.81654171 -0.000101740424,8.3054534 L-0.000101740424,76.2375145 L-0.000101740424,81.6697999 C-0.000101740424,88.1228012 5.24868676,93.3729249 11.7000471,93.3729249 L14.8824875,93.3729249 C15.1256472,93.3729249 15.3606675,93.342395 15.5916183,93.3016885 L15.5916183,100.748947 C15.5916183,102.256106 16.423855,103.63911 17.7546197,104.345368 C18.3528534,104.661861 19.0080618,104.819599 19.6602179,104.819599 C20.460915,104.819599 21.2585599,104.583501 21.9453078,104.117411 L25.6618855,101.59666 L29.3774458,104.117411 C30.0641937,104.583501 30.8618386,104.819599 31.6625357,104.819599 C32.3157093,104.819599 32.9699002,104.661861 33.5681339,104.345368 C34.8988986,103.63911 35.7321527,102.256106 35.7321527,100.748947 L35.7321527,93.3729249 L36.4402661,93.3729249 L68.4640821,93.3729249 C74.9154424,93.3729249 80.1642309,88.1228012 80.1642309,81.6697999 L80.1642309,72.8802442 L80.1642309,71.6804194 C82.7759076,70.6515621 84.6326703,68.1084221 84.6326703,65.1337931 L84.6326703,56.5671056 C84.6326703,54.4228895 83.6661363,52.5025594 82.150204,51.211145 C83.6661363,49.9197306 84.6326703,48.0004181 84.6326703,45.856202 L84.6326703,37.2895145 C84.6326703,35.1452985 83.6661363,33.2239507 82.1491866,31.9325363 C83.6661363,30.6411219 84.6326703,28.7207917 84.6326703,26.5775933 L84.6326703,26.5775933 Z" id="Fill-4"></path>
                </g>
                <path d="M63.096766,81.1615789 L8.13964092,81.1615789 C5.90135158,81.1615789 4.07002394,79.3297855 4.07002394,77.0909268 L4.07002394,9.15988329 C4.07002394,6.92102459 5.90135158,5.08923111 8.13964092,5.08923111 L63.096766,5.08923111 C65.3350553,5.08923111 67.166383,6.92102459 67.166383,9.15988329 L67.166383,77.0909268 C67.166383,79.3297855 65.3350553,81.1615789 63.096766,81.1615789" id="Fill-7" fill="#FFFFFF"></path>
                <path d="M80.5631551,57.4209249 L80.5631551,65.9876124 C80.5631551,67.6270675 79.23646,68.9551178 77.5984391,68.9551178 L71.0076944,68.9551178 L71.0076944,54.4544371 L77.5984391,54.4544371 C79.2354425,54.4544371 80.5631551,55.7824874 80.5631551,57.4209249" id="Fill-9" fill="#FF8F52"></path>
                <path d="M77.5984391,35.1758284 L71.0076944,35.1758284 L71.0076944,49.6754914 L77.5984391,49.6754914 C79.23646,49.6754914 80.5631551,48.3474412 80.5631551,46.7100213 L80.5631551,38.1433338 C80.5631551,36.502861 79.2354425,35.1758284 77.5984391,35.1758284" id="Fill-11" fill="#00BEA5"></path>
                <path d="M77.5984391,15.8972197 L71.0076944,15.8972197 L71.0076944,30.3958651 L77.5984391,30.3958651 C79.23646,30.3958651 80.5631551,29.0678148 80.5631551,27.4314126 L80.5631551,18.8626898 C80.5631551,17.22527 79.2354425,15.8972197 77.5984391,15.8972197" id="Fill-13" fill="#F4517C"></path>
                <polygon id="Fill-15" fill="#F7C364" points="31.6621288 101.602461 25.6614786 97.5318084 19.6608283 101.602461 19.6608283 85.0674715 31.6621288 85.0674715"></polygon>
                <path d="M14.883098,85.067675 L11.6996401,85.067675 C10.2976571,85.067675 9.1561295,83.9268747 9.1561295,82.5235174 L9.1561295,81.1618842 L8.13872525,81.1618842 C5.90145332,81.1618842 4.06910828,79.3300908 4.06910828,77.0912321 L4.06910828,82.5235174 C4.06910828,86.7325717 7.49267356,90.1559902 11.6996401,90.1559902 L14.883098,90.1559902 L14.883098,85.067675 Z" id="Fill-17" fill="#FFFFFF"></path>
                <path d="M71.0075927,73.7340635 L71.0075927,82.5236192 C71.0075927,83.9269765 69.8670825,85.0677768 68.4640821,85.0677768 L36.4402661,85.0677768 L36.4402661,90.156092 L68.4640821,90.156092 C72.672066,90.156092 76.0946139,86.7326735 76.0946139,82.5236192 L76.0946139,73.7340635 L71.0075927,73.7340635 Z" id="Fill-19" fill="#FFFFFF"></path>
                <path d="M63.0968677,5.08872228 L8.13974266,5.08872228 C5.90145332,5.08872228 4.07012568,6.92051576 4.07012568,9.15937446 L4.07012568,77.0904179 L4.07012568,82.5237209 C4.07012568,86.7327753 7.49267356,90.1561937 11.7006575,90.1561937 C11.6996401,90.1561937 6.36132004,89.0041992 6.36132004,84.9630592 C6.36132004,81.1610701 9.1571469,81.1610701 9.1571469,81.1610701 L10.244752,81.1610701 L63.0968677,81.1610701 C65.3351571,81.1610701 67.1664847,79.3292766 67.1664847,77.0904179 L67.1664847,9.15937446 C67.1664847,6.92051576 65.3351571,5.08872228 63.0968677,5.08872228" id="Fill-21" fill="#828CDA"></path>
                <path d="M11.1914467,5.08872228 L8.13923395,5.08872228 C5.90094462,5.08872228 4.06961698,6.92051576 4.06961698,9.15937446 L4.06961698,77.0904179 L4.06961698,82.5237209 C4.06961698,86.7327753 7.49216486,90.1561937 11.7001488,90.1561937 C11.7001488,90.1561937 6.36081134,89.0041992 6.36081134,84.9630592 C6.36081134,83.6624859 6.69146771,82.8137549 7.12182971,82.2509872 L7.12182971,9.15937446 C7.12182971,6.92051576 8.95315735,5.08872228 11.1914467,5.08872228" id="Fill-23" fill="#6976D4"></path>
                <path d="M51.8136512,59.6804421 L22.474765,59.6804421 C21.4685522,59.6824774 20.6373329,58.8958239 20.5813757,57.8913905 L20.6759943,57.1810617 C20.8021524,56.7109014 20.9466238,56.2488823 21.1094085,55.7980576 C21.1389132,55.7135916 21.1775746,55.6331962 21.2091141,55.5497478 C21.3474811,55.1844068 21.4899177,54.8211011 21.6516849,54.4689897 C21.6822071,54.4018239 21.7188336,54.3397465 21.7503732,54.2735984 C21.9233319,53.909275 22.1013776,53.5490223 22.298754,53.2009815 C22.3221543,53.1592573 22.3496243,53.1205861 22.374042,53.078862 C22.585662,52.7104679 22.8064388,52.3481799 23.0445114,51.9991215 C23.0557028,51.9818212 23.0689291,51.9665562 23.0811379,51.949256 C24.1300817,50.4186908 25.4170981,49.0763932 26.8831776,47.9712111 L26.8831776,47.9712111 C29.7654838,45.7964652 33.3365727,44.5315101 37.1436994,44.5335454 C44.8647802,44.5284571 51.6233966,49.7185386 53.6114045,57.1810617 L53.7060231,57.8913905 C53.6510832,58.8958239 52.819864,59.6824774 51.8136512,59.6804421 M37.1436994,26.5473688 C41.0647753,26.5473688 44.2421288,29.7265481 44.2421288,33.6476038 C44.2421288,37.5686595 41.0647753,40.7468212 37.1436994,40.7468212 C33.2256756,40.7427505 30.050357,37.5666242 30.0462874,33.6476038 C30.0462874,29.7265481 33.2236408,26.5473688 37.1436994,26.5473688 M57.3025471,56.340472 C55.570925,49.6635848 50.6436363,44.2801473 44.1475102,41.9659815 C48.7339685,38.0886853 49.3108367,31.2276011 45.435544,26.6399761 C41.5602512,22.0523511 34.6998944,21.4753361 30.113436,25.3516147 C25.5269777,29.2278932 24.9501095,36.0899951 28.8254023,40.6776201 C29.2252421,41.1508334 29.6718826,41.5731636 30.1388712,41.9659815 C27.616726,42.864578 25.3346883,44.2312995 23.3812722,45.9521677 C23.3466804,45.9816799 23.3151409,46.0122098 23.2815665,46.0427397 C22.9030922,46.3795861 22.5388614,46.7316976 22.1868396,47.0950033 C22.1329172,47.1509747 22.0779773,47.2049109 22.0250723,47.2608823 C21.2782976,48.0495712 20.5946019,48.8952492 19.9790724,49.7918103 C19.9159933,49.8844177 19.8539316,49.9780427 19.79187,50.0716677 C19.5365015,50.457362 19.2923245,50.8511976 19.0623911,51.2541921 C19.021695,51.3254285 18.9779466,51.3946296 18.9382678,51.465866 C18.6798471,51.930938 18.4387223,52.4072043 18.2159108,52.8936473 C18.1701276,52.9933783 18.1294315,53.0961622 18.0846657,53.1979285 C17.9127243,53.5897288 17.7519745,53.9886527 17.6034335,54.3936826 C17.5535806,54.5300495 17.5027104,54.6664163 17.4548924,54.8048185 C17.2819337,55.3095793 17.1201664,55.8194285 16.9848517,56.340472 C16.8658154,56.8136853 16.8027363,57.2991106 16.7956145,57.7875889 C16.7966319,58.0084217 16.811893,58.2262016 16.8373281,58.4409285 C16.8444499,58.506059 16.8566587,58.5701717 16.8668328,58.6353022 C16.8902331,58.7859163 16.9166856,58.9355128 16.9512773,59.0820563 C16.9675558,59.1502397 16.9848517,59.2174054 17.003165,59.2845712 C17.0438611,59.4321323 17.0906617,59.5766405 17.1425493,59.7191133 C17.16188,59.7740671 17.1812107,59.8290209 17.2025762,59.8829571 C17.2748119,60.0651187 17.3551868,60.2421921 17.4457358,60.4141772 C17.4508228,60.4243538 17.4548924,60.4355481 17.4599795,60.4457247 C17.6654951,60.8304014 17.9147592,61.1865834 18.1986149,61.5122356 C18.2169282,61.5336065 18.2362589,61.5529421 18.2545722,61.574313 C18.3817477,61.7157682 18.5150277,61.8500997 18.6564468,61.9783253 C18.6757775,61.9966432 18.6951082,62.0149611 18.7144389,62.0322614 C18.8721365,62.1716812 19.0359386,62.3039774 19.2088974,62.426097 L19.2088974,62.426097 L19.2099148,62.426097 C19.4327263,62.5838348 19.6687641,62.7242723 19.9139585,62.8494448 C19.9139585,62.8494448 19.9149759,62.8494448 19.9149759,62.8504625 C19.935324,62.8606391 19.9566895,62.8697981 19.9770376,62.8799747 L19.978055,62.8799747 C20.217145,62.9980236 20.4643742,63.1028429 20.7217775,63.1862913 C20.7268645,63.1883266 20.7319515,63.190362 20.7370385,63.1923973 L20.7370385,63.1923973 C20.9913896,63.2738103 21.2548973,63.3348701 21.523492,63.3806649 C21.5723274,63.3888063 21.6211628,63.3959299 21.6699982,63.4030535 L21.6710156,63.4030535 C21.9335059,63.4407071 22.2010832,63.4671663 22.474765,63.4671663 L30.0462874,63.4671663 L44.2421288,63.4671663 L51.8136512,63.4671663 C52.0873329,63.4671663 52.3549102,63.4407071 52.6184179,63.4030535 C52.6733578,63.3949122 52.7272802,63.3867709 52.78222,63.377612 C53.0447103,63.3318171 53.3021136,63.271775 53.5513776,63.1923973 C53.557482,63.190362 53.5635865,63.187309 53.5696909,63.1852736 C53.8260768,63.1018253 54.0722886,62.9980236 54.3113786,62.8799747 C54.3317267,62.8697981 54.3530922,62.8606391 54.3734402,62.8504625 C54.6196521,62.7252899 54.8556899,62.5838348 55.0785014,62.426097 C56.5354243,61.3982573 57.4897495,59.7058837 57.4917843,57.7875889 C57.4856798,57.2991106 57.4226008,56.8136853 57.3025471,56.340472" id="Fill-25" fill="#32475C"></path>
                <path d="M37.1441063,26.547267 C41.0641649,26.547267 44.2425357,29.7264463 44.2425357,33.647502 C44.2425357,37.5685577 41.0641649,40.7467194 37.1441063,40.7467194 C33.2260826,40.7426488 30.0497465,37.5665224 30.0456769,33.647502 C30.0456769,29.7264463 33.2240478,26.547267 37.1441063,26.547267" id="Fill-27" fill="#F7C364"></path>
                <path d="M51.8136512,59.6804421 L22.474765,59.6804421 C21.4685522,59.6824774 20.6373329,58.8958239 20.5813757,57.8913905 L20.6759943,57.1810617 C20.8021524,56.7109014 20.9466238,56.2488823 21.1094085,55.7980576 C21.1389132,55.7135916 21.1775746,55.6331962 21.2091141,55.5497478 C21.3474811,55.1844068 21.4899177,54.8211011 21.6516849,54.4689897 C21.6822071,54.4018239 21.7188336,54.3397465 21.7503732,54.2735984 C21.9233319,53.909275 22.1013776,53.5490223 22.298754,53.2009815 C22.3221543,53.1592573 22.3496243,53.1205861 22.374042,53.078862 C22.585662,52.7104679 22.8064388,52.3481799 23.0445114,51.9991215 C23.0557028,51.9818212 23.0689291,51.9665563 23.0811379,51.949256 C24.1300817,50.4186908 25.4170981,49.0763932 26.8831776,47.9712111 L26.8831776,47.9712111 C29.7654838,45.7964652 33.3365727,44.5315101 37.1436994,44.5335454 C44.8647802,44.5284571 51.6233966,49.7185386 53.6114045,57.1810617 L53.7060231,57.8913905 C53.6510832,58.8958239 52.819864,59.6824774 51.8136512,59.6804421" id="Fill-29" fill="#F7C364"></path>
                <path d="M38.4425176,38.8538662 C34.8520981,38.8497955 31.9423219,35.9392792 31.9392697,32.348964 C31.9392697,30.0948404 33.0848669,28.1103974 34.8246281,26.9431379 C32.0450797,27.9048295 30.0458804,30.5395591 30.0458804,33.647502 C30.04995,37.5665224 33.2252687,40.7426488 37.1443098,40.7467194 C40.2514624,40.7467194 42.885522,38.7470115 43.846969,35.9667561 C42.6800063,37.7069599 40.6950506,38.8538662 38.4425176,38.8538662" id="Fill-31" fill="#000000" opacity="0.1"></path>
                <path d="M23.4059951,56.218556 L23.5006137,55.5082272 C23.6257544,55.0380668 23.7712432,54.5770655 23.9330105,54.1252231 C23.9635326,54.0407571 24.002194,53.9613793 24.0337335,53.8769133 C24.1721005,53.5115723 24.3145371,53.1482666 24.4763043,52.7961552 C24.5058091,52.7300071 24.543453,52.666912 24.5749926,52.6007639 C24.7469339,52.2374582 24.925997,51.8772054 25.122356,51.528147 C25.1457563,51.4864228 25.1742437,51.4477516 25.197644,51.4060274 C25.4102814,51.0376334 25.6310582,50.6753454 25.8691308,50.326287 C25.8803222,50.3089867 25.8935485,50.2937217 25.9057573,50.2764215 C26.9547011,48.7458563 28.2407001,47.4035587 29.7067796,46.2983766 L29.7067796,46.2983766 C29.7698586,46.2505465 29.8380247,46.2098399 29.9021212,46.1630274 C28.8348641,46.665753 27.8194947,47.2641389 26.8824654,47.970397 L26.8824654,47.9714147 C25.4163859,49.0765967 24.1303869,50.4188943 23.0814431,51.9494595 C23.0692343,51.9667598 23.056008,51.9820247 23.0437992,51.999325 C22.806744,52.3483834 22.5859673,52.7106715 22.3743472,53.0780478 C22.3499295,53.119772 22.3214422,53.1594609 22.2980419,53.2011851 C22.1016828,53.5492258 21.9226197,53.9094785 21.7506784,54.2738019 C21.7191388,54.33995 21.6814949,54.4020274 21.6509728,54.4691932 C21.4902229,54.8213046 21.3477863,55.1846103 21.2094193,55.5499514 C21.1778798,55.6333997 21.1392184,55.7137951 21.1086963,55.7972435 C20.946929,56.2490859 20.8024576,56.7111049 20.6762995,57.1812652 L20.5816809,57.891594 C20.6366207,58.8960274 21.4688574,59.6816633 22.4750702,59.6806457 L51.8139564,59.6806457 C52.779473,59.6816633 53.5771179,58.9550519 53.6890324,58.0076076 L25.298367,58.0076076 C24.2931716,58.0096429 23.4619523,57.2229894 23.4059951,56.218556" id="Fill-33" fill="#000000" opacity="0.1"></path>
                <polygon id="Fill-35" fill="#000000" opacity="0.1" points="19.6608283 90.491819 31.6621288 86.2227226 31.6621288 85.067675 19.6608283 85.067675"></polygon>
                <polygon id="Fill-37" fill="#000000" opacity="0.1" points="71.0076944 15.8972197 71.0076944 30.3958651 73.3812985 30.3958651"></polygon>
                <polygon id="Fill-39" fill="#000000" opacity="0.1" points="71.0076944 35.1763372 71.0076944 49.6749826 73.3812985 49.6749826"></polygon>
                <polygon id="Fill-41" fill="#000000" opacity="0.1" points="71.0076944 54.4554548 71.0076944 68.9541001 73.3812985 68.9541001"></polygon>
            </g>
        </g>
    </g>
</svg>