<?xml version="1.0" encoding="UTF-8" standalone="no"?>
<svg width="112px" height="112px" viewBox="0 0 112 112" version="1.1" xmlns="http://www.w3.org/2000/svg" xmlns:xlink="http://www.w3.org/1999/xlink">
    <!-- Generator: Sketch 39.1 (31720) - http://www.bohemiancoding.com/sketch -->
    <title>companies</title>
    <desc>Created with Sketch.</desc>
    <defs></defs>
    <g id="Sales,-CRM" stroke="none" stroke-width="1" fill="none" fill-rule="evenodd">
        <g id="CRM" transform="translate(-56.000000, -42.000000)">
            <g id="Page-1" transform="translate(58.000000, 56.000000)">
                <path d="M96.4246846,8.34782609 L48.4083,8.34782609 C47.6446846,8.34782609 47.0236846,8.97182609 47.0236846,9.73913043 L47.0236846,27.7286957 L46.1423769,27.7286957 L46.1423769,27.826087 L57.4207615,27.826087 C59.7116077,27.826087 61.5746077,29.698087 61.5746077,32 C61.5746077,34.3012174 59.7116077,36.1732174 57.4221462,36.173913 L59.0511462,36.173913 C61.3419923,36.173913 63.2049923,38.045913 63.2049923,40.3478261 L63.2049923,77.1248696 L68.7019154,77.1248696 L97.8093,77.1248696 L97.8093,9.73913043 C97.8093,8.97182609 97.1883,8.34782609 96.4246846,8.34782609" id="Fill-1" fill="#F7C364"></path>
                <polygon id="Fill-3" fill="#000000" opacity="0.05" points="97.8093 76.7571478 63.2049923 41.9856696 63.2049923 77.1251478 68.7019154 77.1251478 97.8093 77.1251478"></polygon>
                <path d="M22.1538462,77.1248696 L9.65007692,77.1248696 L9.65007692,40.3478261 C9.65007692,39.5805217 10.2710769,38.9565217 11.0346923,38.9565217 L59.0510769,38.9565217 C59.8146923,38.9565217 60.4356923,39.5805217 60.4356923,40.3478261 L60.4356923,77.1248696 L22.1538462,77.1248696 Z" id="Fill-5" fill="#63D7CA"></path>
                <polygon id="Fill-7" fill="#32475C" points="60.1601648 42.3911652 60.1601648 43.7824696"></polygon>
                <path d="M94.7938846,2.78267826 L50.0389615,2.78267826 C49.2739615,2.78267826 48.6543462,2.15937391 48.6543462,1.39137391 C48.6543462,0.623373913 49.2739615,6.95652174e-05 50.0389615,6.95652174e-05 L94.7938846,6.95652174e-05 C95.5581923,6.95652174e-05 96.1785,0.623373913 96.1785,1.39137391 C96.1785,2.15937391 95.5581923,2.78267826 94.7938846,2.78267826" id="Fill-9" fill="#FF8F52"></path>
                <polygon id="Fill-11" fill="#32475C" points="60.1601648 42.3911652 60.1601648 43.7824696"></polygon>
                <path d="M74.8030846,37.4106435 L70.0296231,37.4106435 C68.8077,37.4106435 67.8142385,38.4089043 67.8142385,39.6367304 L67.8142385,42.0854261 C67.8142385,43.3125565 68.8077,44.311513 70.0296231,44.311513 L74.8030846,44.311513 C76.0243154,44.311513 77.0184692,43.3125565 77.0184692,42.0854261 L77.0184692,39.6367304 C77.0184692,38.4089043 76.0243154,37.4106435 74.8030846,37.4106435" id="Fill-13" fill="#FFFFFF" opacity="0.6"></path>
                <polygon id="Fill-15" fill="#32475C" points="60.1601648 53.7987478 60.1601648 55.1900522"></polygon>
                <polygon id="Fill-17" fill="#32475C" points="60.1601648 65.3232696 60.1601648 66.7145739"></polygon>
                <path d="M89.7702231,37.4106435 L84.9967615,37.4106435 C83.7748385,37.4106435 82.7813769,38.4089043 82.7813769,39.6367304 L82.7813769,42.0854261 C82.7813769,43.3125565 83.7748385,44.311513 84.9967615,44.311513 L89.7702231,44.311513 C90.9914538,44.311513 91.9856077,43.3125565 91.9856077,42.0854261 L91.9856077,39.6367304 C91.9856077,38.4089043 90.9914538,37.4106435 89.7702231,37.4106435" id="Fill-19" fill="#FFFFFF" opacity="0.6"></path>
                <path d="M69.4327154,78.2383304 L69.4327154,62.2870261 L75.3997154,62.2870261 L75.3969462,78.2383304 L78.1689462,78.2383304 L78.1689462,62.2870261 C78.1689462,60.7524174 76.9269462,59.5044174 75.3997154,59.5044174 L69.4327154,59.5044174 C67.9054846,59.5044174 66.6634846,60.7524174 66.6634846,62.2870261 L66.6634846,78.2383304 L69.4327154,78.2383304 Z" id="Fill-21" fill="#32475C"></path>
                <path d="M32.0598,78.5161739 L32.0598,68.130087 L38.0268,68.130087 L38.0240308,78.5161739 L40.7960308,78.5161739 L40.7960308,68.130087 C40.7960308,66.5954783 39.5540308,65.3474783 38.0268,65.3474783 L32.0598,65.3474783 C30.5325692,65.3474783 29.2905692,66.5954783 29.2905692,68.130087 L29.2905692,78.5161739 L32.0598,78.5161739 Z" id="Fill-23" fill="#32475C"></path>
                <path d="M22.1538462,77.1248696 L9.65007692,77.1248696 L9.65007692,40.3478261 C9.65007692,39.5805217 10.2710769,38.9565217 11.0346923,38.9565217 L59.0510769,38.9565217 C59.8146923,38.9565217 60.4356923,39.5805217 60.4356923,40.3478261 L60.4356923,77.1248696 L22.1538462,77.1248696 Z M106.065,77.1248696 L68.7018462,77.1248696 L63.2049231,77.1248696 L63.2049231,40.3478261 C63.2049231,38.045913 61.3419231,36.173913 59.0510769,36.173913 L11.0346923,36.173913 C8.74453846,36.173913 6.88084615,38.045913 6.88084615,40.3478261 L6.88084615,77.1248696 L1.38461538,77.1248696 C0.620307692,77.1248696 0,77.7481739 0,78.5161739 C0,79.2841739 0.620307692,79.9074783 1.38461538,79.9074783 L6.88084615,79.9074783 L9.65007692,79.9074783 L22.1538462,79.9074783 L60.4356923,79.9074783 L63.2049231,79.9074783 L68.7018462,79.9074783 L106.065,79.9074783 C106.829308,79.9074783 107.449615,79.2841739 107.449615,78.5161739 C107.449615,77.7481739 106.829308,77.1248696 106.065,77.1248696 L106.065,77.1248696 Z" id="Fill-25" fill="#32475C"></path>
                <polygon id="Fill-27" fill="#FF8F52" points="75.3998538 62.2872348 75.3970846 77.1248 69.4328538 77.1248 69.4328538 62.2872348"></polygon>
                <polygon id="Fill-29" fill="#00A4BF" points="38.0243077 77.1248696 32.0600769 77.1248696 32.0600769 68.130087 38.0270769 68.130087"></polygon>
                <path d="M22.4631,43.2537043 L17.6896385,43.2537043 C16.4677154,43.2537043 15.4742538,44.2519652 15.4742538,45.4797913 L15.4742538,47.928487 C15.4742538,49.1556174 16.4677154,50.1545739 17.6896385,50.1545739 L22.4631,50.1545739 C23.6843308,50.1545739 24.6784846,49.1556174 24.6784846,47.928487 L24.6784846,45.4797913 C24.6784846,44.2519652 23.6843308,43.2537043 22.4631,43.2537043" id="Fill-31" fill="#FFFFFF"></path>
                <path d="M37.4301692,43.2537043 L32.6567077,43.2537043 C31.4347846,43.2537043 30.4413231,44.2519652 30.4413231,45.4797913 L30.4413231,47.928487 C30.4413231,49.1556174 31.4347846,50.1545739 32.6567077,50.1545739 L37.4301692,50.1545739 C38.6514,50.1545739 39.6455538,49.1556174 39.6455538,47.928487 L39.6455538,45.4797913 C39.6455538,44.2519652 38.6514,43.2537043 37.4301692,43.2537043" id="Fill-33" fill="#FFFFFF"></path>
                <path d="M22.4631,54.661913 L17.6896385,54.661913 C16.4677154,54.661913 15.4742538,55.6601739 15.4742538,56.888 L15.4742538,59.336 C15.4742538,60.5638261 16.4677154,61.562087 17.6896385,61.562087 L22.4631,61.562087 C23.6843308,61.562087 24.6784846,60.5638261 24.6784846,59.336 L24.6784846,56.888 C24.6784846,55.6601739 23.6843308,54.661913 22.4631,54.661913" id="Fill-35" fill="#FFFFFF" opacity="0.75"></path>
                <path d="M37.4301692,54.3841391 L32.6567077,54.3841391 C31.4347846,54.3841391 30.4413231,55.3824 30.4413231,56.6102261 L30.4413231,59.0589217 C30.4413231,60.2860522 31.4347846,61.2850087 32.6567077,61.2850087 L37.4301692,61.2850087 C38.6514,61.2850087 39.6455538,60.2860522 39.6455538,59.0589217 L39.6455538,56.6102261 C39.6455538,55.3824 38.6514,54.3841391 37.4301692,54.3841391" id="Fill-37" fill="#FFFFFF" opacity="0.75"></path>
                <path d="M22.4631,66.1858087 L17.6896385,66.1858087 C16.4677154,66.1858087 15.4742538,67.1840696 15.4742538,68.4118957 L15.4742538,70.8605913 C15.4742538,72.0877217 16.4677154,73.0866783 17.6896385,73.0866783 L22.4631,73.0866783 C23.6843308,73.0866783 24.6784846,72.0877217 24.6784846,70.8605913 L24.6784846,68.4118957 C24.6784846,67.1840696 23.6843308,66.1858087 22.4631,66.1858087" id="Fill-39" fill="#FFFFFF" opacity="0.5"></path>
                <path d="M52.3973077,43.2537043 L47.6238462,43.2537043 C46.4019231,43.2537043 45.4084615,44.2519652 45.4084615,45.4797913 L45.4084615,47.928487 C45.4084615,49.1556174 46.4019231,50.1545739 47.6238462,50.1545739 L52.3973077,50.1545739 C53.6185385,50.1545739 54.6126923,49.1556174 54.6126923,47.928487 L54.6126923,45.4797913 C54.6126923,44.2519652 53.6185385,43.2537043 52.3973077,43.2537043" id="Fill-41" fill="#FFFFFF"></path>
                <path d="M52.3973077,54.661913 L47.6238462,54.661913 C46.4019231,54.661913 45.4084615,55.6601739 45.4084615,56.888 L45.4084615,59.336 C45.4084615,60.5638261 46.4019231,61.562087 47.6238462,61.562087 L52.3973077,61.562087 C53.6185385,61.562087 54.6126923,60.5638261 54.6126923,59.336 L54.6126923,56.888 C54.6126923,55.6601739 53.6185385,54.661913 52.3973077,54.661913" id="Fill-43" fill="#FFFFFF" opacity="0.75"></path>
                <path d="M52.3973077,66.1858087 L47.6238462,66.1858087 C46.4019231,66.1858087 45.4084615,67.1840696 45.4084615,68.4118957 L45.4084615,70.8605913 C45.4084615,72.0877217 46.4019231,73.0866783 47.6238462,73.0866783 L52.3973077,73.0866783 C53.6185385,73.0866783 54.6126923,72.0877217 54.6126923,70.8605913 L54.6126923,68.4118957 C54.6126923,67.1840696 53.6185385,66.1858087 52.3973077,66.1858087" id="Fill-45" fill="#FFFFFF" opacity="0.5"></path>
                <path d="M59.8360154,14.4786087 L55.0625538,14.4786087 C53.8406308,14.4786087 52.8471692,15.4768696 52.8471692,16.7046957 L52.8471692,19.1533913 C52.8471692,20.3805217 53.8406308,21.3794783 55.0625538,21.3794783 L59.8360154,21.3794783 C61.0572462,21.3794783 62.0514,20.3805217 62.0514,19.1533913 L62.0514,16.7046957 C62.0514,15.4768696 61.0572462,14.4786087 59.8360154,14.4786087" id="Fill-47" fill="#FFFFFF"></path>
                <path d="M74.8030846,14.4786087 L70.0296231,14.4786087 C68.8077,14.4786087 67.8142385,15.4768696 67.8142385,16.7046957 L67.8142385,19.1533913 C67.8142385,20.3805217 68.8077,21.3794783 70.0296231,21.3794783 L74.8030846,21.3794783 C76.0243154,21.3794783 77.0184692,20.3805217 77.0184692,19.1533913 L77.0184692,16.7046957 C77.0184692,15.4768696 76.0243154,14.4786087 74.8030846,14.4786087" id="Fill-49" fill="#FFFFFF"></path>
                <path d="M74.8030846,25.8865391 L70.0296231,25.8865391 C68.8077,25.8865391 67.8142385,26.8848 67.8142385,28.1126261 L67.8142385,30.5613217 C67.8142385,31.7884522 68.8077,32.7874087 70.0296231,32.7874087 L74.8030846,32.7874087 C76.0243154,32.7874087 77.0184692,31.7884522 77.0184692,30.5613217 L77.0184692,28.1126261 C77.0184692,26.8848 76.0243154,25.8865391 74.8030846,25.8865391" id="Fill-51" fill="#FFFFFF" opacity="0.8"></path>
                <path d="M89.7702231,14.4786087 L84.9967615,14.4786087 C83.7748385,14.4786087 82.7813769,15.4768696 82.7813769,16.7046957 L82.7813769,19.1533913 C82.7813769,20.3805217 83.7748385,21.3794783 84.9967615,21.3794783 L89.7702231,21.3794783 C90.9914538,21.3794783 91.9856077,20.3805217 91.9856077,19.1533913 L91.9856077,16.7046957 C91.9856077,15.4768696 90.9914538,14.4786087 89.7702231,14.4786087" id="Fill-53" fill="#FFFFFF"></path>
                <path d="M89.7702231,25.8868174 L84.9967615,25.8868174 C83.7748385,25.8868174 82.7813769,26.8850783 82.7813769,28.1129043 L82.7813769,30.5609043 C82.7813769,31.7887304 83.7748385,32.7869913 84.9967615,32.7869913 L89.7702231,32.7869913 C90.9914538,32.7869913 91.9856077,31.7887304 91.9856077,30.5609043 L91.9856077,28.1129043 C91.9856077,26.8850783 90.9914538,25.8868174 89.7702231,25.8868174" id="Fill-55" fill="#FFFFFF" opacity="0.8"></path>
                <path d="M74.8030846,48.5410783 L70.0296231,48.5410783 C68.8077,48.5410783 67.8142385,49.5393391 67.8142385,50.7671652 L67.8142385,53.2158609 C67.8142385,54.4429913 68.8077,55.4419478 70.0296231,55.4419478 L74.8030846,55.4419478 C76.0243154,55.4419478 77.0184692,54.4429913 77.0184692,53.2158609 L77.0184692,50.7671652 C77.0184692,49.5393391 76.0243154,48.5410783 74.8030846,48.5410783" id="Fill-57" fill="#FFFFFF" opacity="0.4"></path>
                <path d="M89.7702231,48.8188522 L84.9967615,48.8188522 C83.7748385,48.8188522 82.7813769,49.817113 82.7813769,51.0449391 L82.7813769,53.4929391 C82.7813769,54.7207652 83.7748385,55.7190261 84.9967615,55.7190261 L89.7702231,55.7190261 C90.9914538,55.7190261 91.9856077,54.7207652 91.9856077,53.4929391 L91.9856077,51.0449391 C91.9856077,49.817113 90.9914538,48.8188522 89.7702231,48.8188522" id="Fill-59" fill="#FFFFFF" opacity="0.4"></path>
                <path d="M89.7702231,71.7650087 L89.7702231,70.6519652 L89.7702231,70.6519652 L89.7702231,71.7650087 Z M89.7702231,60.968487 L84.9967615,60.968487 C83.7748385,60.968487 82.7813769,61.9674435 82.7813769,63.1945739 L82.7813769,70.6519652 C82.7813769,71.8797913 83.7748385,72.8780522 84.9967615,72.8780522 L89.7702231,72.8780522 C90.9914538,72.8780522 91.9856077,71.8797913 91.9856077,70.6519652 L91.9856077,63.1945739 C91.9856077,61.9674435 90.9914538,60.968487 89.7702231,60.968487 L89.7702231,60.968487 Z" id="Fill-61" fill="#FFFFFF" opacity="0.2"></path>
                <path d="M58.2916718,27.8184348 L58.2916718,27.8184348 C58.1375051,27.7883826 57.9816718,27.7650087 57.8233385,27.7491478" id="Fill-63" fill="#E2E2E2"></path>
                <path d="M57.4209692,33.3911652 L12.6660462,33.3911652 C11.9010462,33.3911652 11.2814308,32.7678609 11.2814308,31.9998609 C11.2814308,31.2318609 11.9010462,30.6085565 12.6660462,30.6085565 L57.4209692,30.6085565 C58.1852769,30.6085565 58.8055846,31.2318609 58.8055846,31.9998609 C58.8055846,32.7678609 58.1852769,33.3911652 57.4209692,33.3911652" id="Fill-65" fill="#00A4BF"></path>
                <path d="M96.4246846,5.56521739 L48.4083,5.56521739 C46.1174538,5.56521739 44.2544538,7.43721739 44.2544538,9.73913043 L44.2544538,27.826087 L47.0236846,27.826087 L47.0236846,9.73913043 C47.0236846,8.97182609 47.6446846,8.34782609 48.4083,8.34782609 L96.4246846,8.34782609 C97.1883,8.34782609 97.8093,8.97182609 97.8093,9.73913043 L97.8093,78.3206957 L100.578531,78.3206957 L100.578531,9.73913043 C100.578531,7.43721739 98.7155308,5.56521739 96.4246846,5.56521739" id="Fill-67" fill="#32475C"></path>
                <path d="M59.8359462,25.8865391 L55.0624846,25.8865391 C53.9381769,25.8865391 53.0174077,26.7345391 52.8754846,27.8260174 L57.4211769,27.8260174 C59.6871,27.8260174 61.5327923,29.6597565 61.5708692,31.9282783 C61.8671769,31.5498435 62.0513308,31.078887 62.0513308,30.5606261 L62.0513308,28.1126261 C62.0513308,26.8848 61.0578692,25.8865391 59.8359462,25.8865391" id="Fill-69" fill="#FFFFFF" opacity="0.8"></path>
            </g>
        </g>
    </g>
</svg>