<?xml version="1.0" encoding="utf-8"?>
<!-- Generator: Adobe Illustrator 18.0.0, SVG Export Plug-In . SVG Version: 6.00 Build 0)  -->
<!DOCTYPE svg PUBLIC "-//W3C//DTD SVG 1.1//EN" "http://www.w3.org/Graphics/SVG/1.1/DTD/svg11.dtd">
<svg version="1.1" id="Layer_1" xmlns="http://www.w3.org/2000/svg" xmlns:xlink="http://www.w3.org/1999/xlink" x="0px" y="0px"
	 width="32px" height="32px" viewBox="0 0 32 32" enable-background="new 0 0 32 32" xml:space="preserve">
<path fill="#FCB95B" d="M28,32H4c-2.2,0-4-1.8-4-4V4c0-2.2,1.8-4,4-4h24c2.2,0,4,1.8,4,4v24C32,30.2,30.2,32,28,32z"/>
<path fill="#FFFFFF" d="M22.8,22.5H9.2c-0.3,0-0.5,0.3-0.5,0.5c0,1.1,0.8,2,1.9,2h10.9c1.1,0,1.9-0.9,1.9-2
	C23.3,22.7,23.1,22.5,22.8,22.5z M24.3,9.3c-1.1,0-1.9,0.9-1.9,2c0,0.5,0.3,1.1,0.7,1.5c-0.5,1.2-1.7,2-3.2,2
	c-1.7-0.1-3.1-1.5-3.2-3.2v-0.8c0.8-0.3,1.2-0.9,1.2-1.7c0-1.1-0.8-2-1.9-2s-1.9,0.9-1.9,2c0,0.8,0.4,1.5,1.2,1.7v0.8
	c-0.1,1.7-1.5,3.1-3.2,3.2c-1.5,0.1-2.7-0.8-3.2-2c0.4-0.4,0.7-0.9,0.7-1.5c0-1.1-0.8-2-1.9-2s-2,0.9-2,2s0.9,1.9,2,1.9l0.8,6.8
	c0.1,0.4,0.3,0.5,0.7,0.5h13.6c0.3,0,0.5-0.1,0.7-0.5l0.8-6.8c1.1,0,2-0.8,2-1.9S25.3,9.3,24.3,9.3z"/>
</svg>
