<?xml version="1.0" encoding="utf-8"?>
<!-- Generator: Adobe Illustrator 18.0.0, SVG Export Plug-In . SVG Version: 6.00 Build 0)  -->
<!DOCTYPE svg PUBLIC "-//W3C//DTD SVG 1.1//EN" "http://www.w3.org/Graphics/SVG/1.1/DTD/svg11.dtd">
<svg version="1.1" id="Layer_1" xmlns="http://www.w3.org/2000/svg" xmlns:xlink="http://www.w3.org/1999/xlink" x="0px" y="0px"
	 width="32px" height="32px" viewBox="0 0 32 32" enable-background="new 0 0 32 32" xml:space="preserve">
<path fill="#A094ED" d="M28,32H4c-2.2,0-4-1.8-4-4V4c0-2.2,1.8-4,4-4h24c2.2,0,4,1.8,4,4v24C32,30.2,30.2,32,28,32z"/>
<path fill="#FFFFFF" d="M23.7,9.5H8.3c-1.1,0-1.9,0.8-1.9,1.9v9.3c0,1.1,0.8,1.9,1.9,1.9h15.5c1.1,0,1.9-0.8,1.9-1.9v-9.3
	C25.6,10.3,24.8,9.5,23.7,9.5z M15.6,20.3H10c-0.5,0-1.1-0.7-1.1-1.3c0-0.9,1.1-1.5,2.1-2c0.7-0.3,0.8-0.5,0.8-0.9
	c0-0.4-0.1-0.5-0.4-0.8c-0.4-0.4-0.7-0.9-0.7-1.6c0-1.2,0.7-2.3,2-2.3s2,1.1,2,2.3c0,0.7-0.3,1.2-0.7,1.6c-0.3,0.3-0.5,0.5-0.5,0.8
	c0,0.3,0.1,0.7,0.9,0.9c1.1,0.4,2,1.1,2,2C16.7,19.6,16.1,20.3,15.6,20.3z M23.1,18c0,0.4-0.3,0.7-0.7,0.7h-2.9
	c-0.3,0-0.5-0.3-0.5-0.7v-0.9c0-0.3,0.3-0.7,0.5-0.7h2.9c0.4,0,0.7,0.4,0.7,0.7V18z M23.1,14.5c0,0.4-0.3,0.7-0.7,0.7h-4.8
	c-0.4,0-0.7-0.3-0.7-0.7v-0.9c0-0.4,0.3-0.7,0.7-0.7h4.8c0.4,0,0.7,0.3,0.7,0.7V14.5z"/>
</svg>
