{
  "value": [
    {
      "SchemaName": "Contact",
      "Attributes": [
        {
          "AttributeType": "Virtual",
          "LogicalName": "nolabelfield",
          "DisplayName": {
            "LocalizedLabels": [],
            "UserLocalizedLabel": null
          }
        },
        {
          "AttributeType": "Lookup",
          "LogicalName": "fieldtoskip",
          "DisplayName": {
            "UserLocalizedLabel": {
              "Label": "Field To Skip"
            }
          }
        },
        {
          "AttributeType": "String",
          "LogicalName": "emailaddress1",
          "DisplayName": {
            "UserLocalizedLabel": {
              "Label": "Email"
            }
          }
        },
        {
          "AttributeType": "String",
          "LogicalName": "fullname",
          "DisplayName": {
            "UserLocalizedLabel": {
              "Label": "Full Name"
            }
          }
        },
        {
          "AttributeType": "String",
          "LogicalName": "contacttestfield",
          "DisplayName": {
            "UserLocalizedLabel": {
              "Label": "Contact Test Field"
            }
          }
        },
        {
          "AttributeType": "String",
          "LogicalName": "address1_addresstypecode",
          "DisplayName": {
            "UserLocalizedLabel": {
              "Label": "Address field to skip"
            }
          }
        },
        {
          "AttributeType": "String",
          "LogicalName": "int_facebookservice",
          "DisplayName": {
            "UserLocalizedLabel": {
              "Label": "Facebook service field to skip"
            }
          }
        }
      ]
    }
  ]
}
